%YAML 1.1
%TAG !u! tag:unity3d.com,2011:
--- !u!114 &11400000
MonoBehaviour:
  m_ObjectHideFlags: 0
  m_PrefabParentObject: {fileID: 0}
  m_PrefabInternal: {fileID: 0}
  m_GameObject: {fileID: 0}
  m_Enabled: 1
  m_EditorHideFlags: 0
  m_Script: {fileID: 11500000, guid: 35cdc0606da99b14e8b35ae93fc2c65b, type: 3}
  m_Name: Tomato Soup
  m_EditorClassIdentifier: 
  Name: Tomato Soup
  Prefab: {fileID: 1332230164266142, guid: 78c0514c47534c54a829089cf9754aca, type: 2}
  Material: {fileID: 2100000, guid: c794cbf77b84abc4eb9b85ce82e9862e, type: 2}
  Cost: 10
